#NaCl

units       real
variable    T equal 500
variable    dt equal 1.0
variable    steps equal 100000

timestep     ${dt}

atom_style charge
read_data NaCl.lmp
include NaCl.forcefield

#velocity     all create $T 2020 mom yes rot yes dist gaussian

fix         NVE all nve
variable ee equal ecoul+elong
variable evdw equal evdwl-etail
variable ecfg equal evdwl+v_ee
variable esrc equal evdwl

group Cl type 1
group Na type 2

compute myrdf all rdf 100 * * 1 1 1 2 2 2
#compute mymsd all msd
#compute msdNa Na  msd 
#compute msdCl Cl  msd 

fix 1 all ave/time 1 ${steps} ${steps} c_thermo_press c_thermo_temp file temp.profile
fix 2 all ave/time 100 1000 ${steps} c_myrdf[*] file rdf.dat mode vector
#fix 3 all ave/time 10 100 ${steps} c_mymsd[*] file msd.dat mode vector
#fix 4 all ave/time 10 100 ${steps} c_msdNa[*] file msdNa.dat mode vector
#fix 5 all ave/time 10 100 ${steps} c_msdCl[*] file msdCl.dat mode vector


thermo_style custom time etotal temp  v_ecfg v_esrc  v_ee  ebond eangle v_evdw epair etail press
thermo_modify flush yes format line "%13.6e %13.6e %13.6e %13.6e %13.6e %13.6e %13.6e %13.6e %13.6e %13.6e %13.6e %13.6e"
thermo 100

#neigh_modify one 4000

run           ${steps}

