# Time-averaged data for fix 2
# TimeStep Number-of-rows
# Row c_myrdf[1] c_myrdf[2] c_myrdf[3] c_myrdf[4] c_myrdf[5] c_myrdf[6] c_myrdf[7] c_myrdf[8] c_myrdf[9]
10000 100
1 0.055 0 0 0 0 0 0 0 0
2 0.165 0 0 0 0 0 0 0 0
3 0.275 0 0 0 0 0 0 0 0
4 0.385 0 0 0 0 0 0 0 0
5 0.495 0 0 0 0 0 0 0 0
6 0.605 0 0 0 0 0 0 0 0
7 0.715 0 0 0 0 0 0 0 0
8 0.825 0 0 0 0 0 0 0 0
9 0.935 0 0 0 0 0 0 0 0
10 1.045 0 0 0 0 0 0 0 0
11 1.155 0 0 0 0 0 0 0 0
12 1.265 0 0 0 0 0 0 0 0
13 1.375 0 0 0 0 0 0 0 0
14 1.485 0 0 0 0 0 0 0 0
15 1.595 0 0 0 0 0 0 0 0
16 1.705 0 0 0 0 0 0 0 0
17 1.815 0 0 0 0 0 0 0 0
18 1.925 0 0 0 0 0 0 0 0
19 2.035 0 0 0 0 0 0 0 0
20 2.145 0 0 0 0 0 0 0 0
21 2.255 3.98733e-06 1.25e-06 0 0 7.97454e-06 1.25e-06 0 0
22 2.365 0.00361695 0.00124844 0 0 0.00723379 0.00124844 0 0
23 2.475 0.200619 0.0770087 0 0 0.401231 0.0770087 0 0
24 2.585 1.41381 0.659415 0 0 2.82758 0.659415 0 0
25 2.695 3.07008 2.03401 0 0 6.14007 2.03401 0 0
26 2.805 3.29944 3.63434 0 0 6.59877 3.63434 0 0
27 2.915 2.30253 4.84044 0 0 4.60498 4.84044 0 0
28 3.025 1.20984 5.5229 0 0 2.41963 5.5229 1.9944e-05 5.625e-06
29 3.135 0.514038 5.83433 0 0 1.02792 5.83429 0.000276474 8.9375e-05
30 3.245 0.180788 5.95168 7.70296e-06 2.5e-06 0.360021 5.95113 0.00309274 0.00109312
31 3.355 0.0596927 5.9931 0.0007008 0.000245625 0.106398 5.98805 0.0252702 0.00986
32 3.465 0.054696 6.03358 0.0217355 0.00828875 0.0256929 5.99756 0.145665 0.0637625
33 3.575 0.213381 6.20169 0.242788 0.103926 0.00519137 5.9996 0.600367 0.300254
34 3.685 0.755942 6.83446 1.27759 0.638626 0.000846702 5.99995 1.74453 1.03038
35 3.795 1.7951 8.4281 3.59974 2.23648 9.36316e-05 6 3.58058 2.61973
36 3.905 2.80745 11.0671 6.00499 5.05872 5.7846e-05 6.00002 5.22489 5.07534
37 4.015 2.92877 13.9773 6.26011 8.16895 0.000433357 6.00024 5.45431 7.78522
38 4.125 2.10229 16.1824 4.28818 10.4178 0.00287745 6.00175 4.11535 9.94342
39 4.235 1.07649 17.3725 1.98862 11.517 0.0165271 6.01088 2.28435 11.2061
40 4.345 0.435004 17.8787 0.642693 11.891 0.0745223 6.05425 0.948303 11.7579
41 4.455 0.243687 18.1768 0.148299 11.9817 0.26319 6.21524 0.300068 11.9415
42 4.565 0.378953 18.6636 0.0249041 11.9977 0.708736 6.67045 0.0734179 11.9886
43 4.675 0.72025 19.6339 0.00307495 11.9998 1.4318 7.63493 0.0142752 11.9982
44 4.785 1.07593 21.1524 0.000309994 12 2.15058 9.15255 0.00217262 11.9998
45 4.895 1.19333 22.9149 4.2317e-05 12 2.38639 10.9149 0.000418938 12.0001
46 5.005 0.975296 24.4209 0.000809548 12.0006 1.94867 12.4194 0.00298076 12.0024
47 5.115 0.596993 25.3837 0.0131256 12.0112 1.17182 13.3643 0.0311662 12.0275
48 5.225 0.324512 25.9298 0.0972254 12.093 0.520199 13.802 0.160412 12.1625
49 5.335 0.302523 26.4605 0.387233 12.4327 0.171607 13.9525 0.479651 12.5832
50 5.445 0.482433 27.3422 0.913231 13.2672 0.0425286 13.9914 0.931471 13.4343
51 5.555 0.667353 28.6115 1.38666 14.5859 0.0100608 14.001 1.26267 14.6352
52 5.665 0.684825 29.9662 1.43092 16.0012 0.0198578 14.0206 1.26871 15.89
53 5.775 0.56084 31.1191 1.04507 17.0754 0.110515 14.1342 0.977292 16.8945
54 5.885 0.514286 32.217 0.554398 17.6671 0.458066 14.6232 0.586618 17.5207
55 5.995 0.790223 33.9676 0.217514 17.908 1.332 16.0986 0.279339 17.8301
56 6.105 1.41376 37.2156 0.0635453 17.981 2.7411 19.2473 0.109218 17.9555
57 6.215 2.03679 42.065 0.0182076 18.0027 4.03801 24.0544 0.0528048 18.0184
58 6.325 2.18612 47.4558 0.0350203 18.0459 4.30486 29.3623 0.0996228 18.1412
59 6.435 1.8097 52.075 0.170914 18.264 3.37528 33.6699 0.317243 18.5461
60 6.545 1.35154 55.6436 0.6251 19.0893 1.96983 36.2706 0.841363 19.6569
61 6.655 1.27008 59.1109 1.61473 21.2933 0.866518 37.4534 1.73259 22.0218
62 6.765 1.56211 63.5175 2.93136 25.4278 0.290573 37.8632 2.73601 25.8808
63 6.875 1.81018 68.7913 3.76819 30.9169 0.0753134 37.9729 3.322 30.7199
64 6.985 1.63975 73.7227 3.43958 36.0889 0.0151584 37.9957 3.08921 35.365
65 7.095 1.11464 77.1813 2.24221 39.5675 0.00241205 37.9995 2.21162 38.7961
66 7.205 0.566904 78.9953 1.04613 41.2412 0.000297864 37.9999 1.22093 40.7495
67 7.315 0.221762 79.7267 0.354964 41.8265 3.37293e-05 38 0.532032 41.6269
68 7.425 0.0815896 80.004 0.104571 42.0042 1.60009e-05 38 0.221761 42.0037
69 7.535 0.0777013 80.2759 0.108088 42.1933 0.000148227 38.0003 0.202425 42.3579
70 7.645 0.18136 80.9292 0.318104 42.7663 0.00123643 38.0025 0.404876 43.0871
71 7.755 0.381197 82.3423 0.745778 44.1486 0.00859802 38.0184 0.761835 44.4992
72 7.865 0.609599 84.6667 1.22717 46.4881 0.0464442 38.107 1.11837 46.6312
73 7.975 0.764483 87.6636 1.42598 49.2832 0.188463 38.4764 1.25506 49.0913
74 8.085 0.853186 91.1013 1.17892 51.6581 0.575465 39.6358 1.08292 51.2729
75 8.195 1.01178 95.2896 0.69969 53.1063 1.31161 42.3505 0.724197 52.7718
76 8.305 1.29656 100.802 0.311219 53.7679 2.23562 47.1029 0.40371 53.6299
77 8.415 1.53732 107.512 0.163137 54.1239 2.85173 53.3266 0.282611 54.2467
78 8.525 1.55217 114.465 0.303292 54.8032 2.73031 59.4421 0.444704 55.2427
79 8.635 1.40785 120.936 0.791366 56.6217 1.97175 63.9732 0.896505 57.3029
80 8.745 1.3085 127.104 1.54713 60.2681 1.09512 66.5544 1.49665 60.8303
81 8.855 1.29427 133.359 2.15386 65.473 0.547156 67.8766 1.92897 65.4917
82 8.965 1.25375 139.57 2.14988 70.7982 0.473149 69.0486 1.91889 70.2447
83 9.075 1.17108 145.515 1.55263 74.7389 0.824318 71.1409 1.48306 74.0089
84 9.185 1.13273 151.405 0.822985 76.8787 1.40142 74.7847 0.905073 76.3621
85 9.295 1.12645 157.404 0.348508 77.8066 1.84133 79.6877 0.474592 77.6258
86 9.405 1.03619 163.053 0.201196 78.3551 1.82241 84.6558 0.29871 78.4401
87 9.515 0.838842 167.735 0.289186 79.162 1.36757 88.4718 0.331003 79.3636
88 9.625 0.641274 171.396 0.476407 80.5222 0.816584 90.8032 0.45551 80.6642
89 9.735 0.543747 174.573 0.60574 82.2914 0.513474 92.303 0.542301 82.2481
90 9.845 0.570826 177.983 0.565856 83.9816 0.596565 94.085 0.524318 83.8142
91 9.955 0.712507 182.335 0.40996 85.2337 0.996053 97.1273 0.447945 85.1824
92 10.065 0.919914 188.079 0.333441 86.2748 1.43922 101.621 0.467735 86.6427
93 10.175 1.13362 195.314 0.574464 88.1077 1.59729 106.717 0.765413 89.0849
94 10.285 1.34434 204.079 1.29218 92.3203 1.33785 111.079 1.40949 93.6799
95 10.395 1.55749 214.453 2.32617 100.067 0.847234 113.901 2.20937 101.037
96 10.505 1.65832 225.733 3.07502 110.525 0.40811 115.289 2.74212 110.363
97 10.615 1.47908 236.005 2.95906 120.801 0.150075 115.81 2.65719 119.591
98 10.725 1.04575 243.42 2.08098 128.178 0.0426318 115.961 2.01682 126.74
99 10.835 0.583323 247.641 1.08927 132.119 0.0111714 116.001 1.22172 131.161
100 10.945 0.288624 249.772 0.482052 133.898 0.0137356 116.052 0.64499 133.542
