Unloading /usr/local/share/epcc-module/epcc-module-loader

Warning: Unloading the epcc-setup-env module will stop many
modules being available on the system. If you do this by
accident, you can recover the situation with the command:

	module load /work/y07/shared/archer2-modules/modulefiles-cse/epcc-setup-env

Unloading /work/y07/shared/archer2-modules/modulefiles-cse/epcc-setup-env
Unloading bolt/0.7
Loading bolt/0.7
Loading /work/y07/shared/archer2-modules/modulefiles-cse/epcc-setup-env
Loading /usr/local/share/epcc-module/epcc-module-loader

Loading epcc-job-env
  Loading requirement: bolt/0.7
    /work/y07/shared/archer2-modules/modulefiles-cse/epcc-setup-env
LAMMPS (2 Jul 2021)
Reading data file ...
  orthogonal box = (0.0000000 0.0000000 0.0000000) to (112.80000 112.80000 112.80000)
  4 by 8 by 8 MPI processor grid
  reading atoms ...
  64000 atoms
  reading velocities ...
  64000 velocities
  read_data CPU = 0.221 seconds
32000 atoms in group Cl
32000 atoms in group Na
PPPM initialization ...
  using 12-bit tables for long-range coulomb (src/kspace.cpp:340)
  G vector (1/distance) = 0.30981715
  grid = 150 150 150
  stencil order = 5
  estimated absolute RMS force accuracy = 0.0004230729
  estimated relative force accuracy = 1.2740715e-06
  using double precision FFTW3
  3d grid and FFT values/proc = 32805 15000
Neighbor list info ...
  update every 1 steps, delay 10 steps, check yes
  max neighbors/atom: 2000, page size: 100000
  master list distance cutoff = 13
  ghost atom cutoff = 13
  binsize = 6.5, bins = 18 18 18
  2 neighbor lists, perpetual/occasional/extra = 1 1 0
  (1) pair lj/cut/coul/long, perpetual
      attributes: half, newton on
      pair build: half/bin/atomonly/newton
      stencil: half/bin/3d
      bin: standard
  (2) compute rdf, occasional, copy from (1)
      attributes: half, newton on
      pair build: copy
      stencil: none
      bin: none
Setting up Verlet run ...
  Unit style    : real
  Current step  : 0
  Time step     : 1
Per MPI rank memory allocation (min/avg/max) = 6.075 | 6.247 | 6.426 Mbytes
Time TotEng Temp v_ecfg v_esrc v_ee E_bond E_angle v_evdw E_pair E_tail Press 
 0.000000e+00 -4.879938e+06  5.010783e+02 -4.975528e+06  1.785628e+05 -5.154091e+06  0.000000e+00  0.000000e+00  1.852846e+05 -4.975528e+06 -6.721834e+03  3.522752e+03 
 1.000000e+02 -4.879938e+06  5.002700e+02 -4.975374e+06  1.788533e+05 -5.154227e+06  0.000000e+00  0.000000e+00  1.855752e+05 -4.975374e+06 -6.721834e+03  3.572435e+03 
 2.000000e+02 -4.879937e+06  5.018054e+02 -4.975666e+06  1.786186e+05 -5.154285e+06  0.000000e+00  0.000000e+00  1.853404e+05 -4.975666e+06 -6.721834e+03  3.535654e+03 
 3.000000e+02 -4.879938e+06  4.996402e+02 -4.975254e+06  1.789905e+05 -5.154244e+06  0.000000e+00  0.000000e+00  1.857123e+05 -4.975254e+06 -6.721834e+03  3.597327e+03 
 4.000000e+02 -4.879938e+06  5.024819e+02 -4.975796e+06  1.786326e+05 -5.154429e+06  0.000000e+00  0.000000e+00  1.853544e+05 -4.975796e+06 -6.721834e+03  3.540367e+03 
 5.000000e+02 -4.879937e+06  5.020619e+02 -4.975715e+06  1.786682e+05 -5.154383e+06  0.000000e+00  0.000000e+00  1.853900e+05 -4.975715e+06 -6.721834e+03  3.545393e+03 
 6.000000e+02 -4.879938e+06  5.004025e+02 -4.975399e+06  1.786926e+05 -5.154091e+06  0.000000e+00  0.000000e+00  1.854144e+05 -4.975399e+06 -6.721834e+03  3.545820e+03 
 7.000000e+02 -4.879938e+06  5.019129e+02 -4.975688e+06  1.787023e+05 -5.154390e+06  0.000000e+00  0.000000e+00  1.854242e+05 -4.975688e+06 -6.721834e+03  3.548408e+03 
 8.000000e+02 -4.879938e+06  4.984485e+02 -4.975026e+06  1.790257e+05 -5.154052e+06  0.000000e+00  0.000000e+00  1.857475e+05 -4.975026e+06 -6.721834e+03  3.602978e+03 
 9.000000e+02 -4.879938e+06  5.022623e+02 -4.975754e+06  1.784123e+05 -5.154167e+06  0.000000e+00  0.000000e+00  1.851341e+05 -4.975754e+06 -6.721834e+03  3.495679e+03 
 1.000000e+03 -4.879938e+06  5.030281e+02 -4.975900e+06  1.784771e+05 -5.154378e+06  0.000000e+00  0.000000e+00  1.851989e+05 -4.975900e+06 -6.721834e+03  3.511137e+03 
 1.100000e+03 -4.879938e+06  5.018184e+02 -4.975669e+06  1.783787e+05 -5.154048e+06  0.000000e+00  0.000000e+00  1.851005e+05 -4.975669e+06 -6.721834e+03  3.490884e+03 
 1.200000e+03 -4.879937e+06  5.018128e+02 -4.975667e+06  1.785846e+05 -5.154252e+06  0.000000e+00  0.000000e+00  1.853065e+05 -4.975667e+06 -6.721834e+03  3.531105e+03 
 1.300000e+03 -4.879938e+06  5.015063e+02 -4.975610e+06  1.787348e+05 -5.154344e+06  0.000000e+00  0.000000e+00  1.854567e+05 -4.975610e+06 -6.721834e+03  3.557843e+03 
 1.400000e+03 -4.879938e+06  5.013867e+02 -4.975587e+06  1.787586e+05 -5.154346e+06  0.000000e+00  0.000000e+00  1.854804e+05 -4.975587e+06 -6.721834e+03  3.560880e+03 
 1.500000e+03 -4.879937e+06  5.009109e+02 -4.975495e+06  1.788305e+05 -5.154325e+06  0.000000e+00  0.000000e+00  1.855523e+05 -4.975495e+06 -6.721834e+03  3.574180e+03 
 1.600000e+03 -4.879938e+06  5.010371e+02 -4.975521e+06  1.790981e+05 -5.154619e+06  0.000000e+00  0.000000e+00  1.858199e+05 -4.975521e+06 -6.721834e+03  3.623205e+03 
 1.700000e+03 -4.879938e+06  5.001743e+02 -4.975356e+06  1.789231e+05 -5.154279e+06  0.000000e+00  0.000000e+00  1.856450e+05 -4.975356e+06 -6.721834e+03  3.589169e+03 
 1.800000e+03 -4.879937e+06  5.015039e+02 -4.975608e+06  1.787203e+05 -5.154329e+06  0.000000e+00  0.000000e+00  1.854421e+05 -4.975608e+06 -6.721834e+03  3.554596e+03 
 1.900000e+03 -4.879937e+06  5.003433e+02 -4.975387e+06  1.788627e+05 -5.154250e+06  0.000000e+00  0.000000e+00  1.855846e+05 -4.975387e+06 -6.721834e+03  3.577733e+03 
 2.000000e+03 -4.879938e+06  4.987716e+02 -4.975088e+06  1.792448e+05 -5.154333e+06  0.000000e+00  0.000000e+00  1.859666e+05 -4.975088e+06 -6.721834e+03  3.643302e+03 
 2.100000e+03 -4.879938e+06  4.992216e+02 -4.975174e+06  1.789443e+05 -5.154118e+06  0.000000e+00  0.000000e+00  1.856662e+05 -4.975174e+06 -6.721834e+03  3.589439e+03 
 2.200000e+03 -4.879938e+06  5.003430e+02 -4.975388e+06  1.789805e+05 -5.154369e+06  0.000000e+00  0.000000e+00  1.857023e+05 -4.975388e+06 -6.721834e+03  3.598956e+03 
 2.300000e+03 -4.879938e+06  5.006769e+02 -4.975452e+06  1.789172e+05 -5.154369e+06  0.000000e+00  0.000000e+00  1.856390e+05 -4.975452e+06 -6.721834e+03  3.587576e+03 
 2.400000e+03 -4.879938e+06  4.994542e+02 -4.975218e+06  1.791410e+05 -5.154359e+06  0.000000e+00  0.000000e+00  1.858629e+05 -4.975218e+06 -6.721834e+03  3.628534e+03 
 2.500000e+03 -4.879938e+06  5.001099e+02 -4.975343e+06  1.790894e+05 -5.154432e+06  0.000000e+00  0.000000e+00  1.858112e+05 -4.975343e+06 -6.721834e+03  3.618375e+03 
 2.600000e+03 -4.879938e+06  5.021516e+02 -4.975733e+06  1.788529e+05 -5.154586e+06  0.000000e+00  0.000000e+00  1.855747e+05 -4.975733e+06 -6.721834e+03  3.578525e+03 
 2.700000e+03 -4.879938e+06  5.022079e+02 -4.975744e+06  1.787428e+05 -5.154487e+06  0.000000e+00  0.000000e+00  1.854646e+05 -4.975744e+06 -6.721834e+03  3.558058e+03 
 2.800000e+03 -4.879938e+06  5.007181e+02 -4.975459e+06  1.789500e+05 -5.154409e+06  0.000000e+00  0.000000e+00  1.856718e+05 -4.975459e+06 -6.721834e+03  3.595114e+03 
 2.900000e+03 -4.879938e+06  5.018958e+02 -4.975684e+06  1.786124e+05 -5.154297e+06  0.000000e+00  0.000000e+00  1.853343e+05 -4.975684e+06 -6.721834e+03  3.534600e+03 
 3.000000e+03 -4.879938e+06  5.020996e+02 -4.975723e+06  1.786966e+05 -5.154419e+06  0.000000e+00  0.000000e+00  1.854184e+05 -4.975723e+06 -6.721834e+03  3.549533e+03 
 3.100000e+03 -4.879938e+06  5.014220e+02 -4.975594e+06  1.787222e+05 -5.154316e+06  0.000000e+00  0.000000e+00  1.854440e+05 -4.975594e+06 -6.721834e+03  3.553225e+03 
 3.200000e+03 -4.879938e+06  5.013099e+02 -4.975573e+06  1.786258e+05 -5.154198e+06  0.000000e+00  0.000000e+00  1.853476e+05 -4.975573e+06 -6.721834e+03  3.536094e+03 
 3.300000e+03 -4.879938e+06  5.022215e+02 -4.975747e+06  1.785689e+05 -5.154315e+06  0.000000e+00  0.000000e+00  1.852907e+05 -4.975747e+06 -6.721834e+03  3.528244e+03 
 3.400000e+03 -4.879939e+06  5.008606e+02 -4.975487e+06  1.788596e+05 -5.154347e+06  0.000000e+00  0.000000e+00  1.855814e+05 -4.975487e+06 -6.721834e+03  3.576883e+03 
 3.500000e+03 -4.879938e+06  4.991299e+02 -4.975156e+06  1.791869e+05 -5.154343e+06  0.000000e+00  0.000000e+00  1.859087e+05 -4.975156e+06 -6.721834e+03  3.636098e+03 
 3.600000e+03 -4.879938e+06  5.007545e+02 -4.975466e+06  1.789315e+05 -5.154398e+06  0.000000e+00  0.000000e+00  1.856533e+05 -4.975466e+06 -6.721834e+03  3.590228e+03 
 3.700000e+03 -4.879938e+06  5.016845e+02 -4.975644e+06  1.789226e+05 -5.154566e+06  0.000000e+00  0.000000e+00  1.856444e+05 -4.975644e+06 -6.721834e+03  3.592474e+03 
 3.800000e+03 -4.879938e+06  5.010518e+02 -4.975523e+06  1.788983e+05 -5.154421e+06  0.000000e+00  0.000000e+00  1.856201e+05 -4.975523e+06 -6.721834e+03  3.585120e+03 
 3.900000e+03 -4.879939e+06  5.010210e+02 -4.975518e+06  1.787893e+05 -5.154307e+06  0.000000e+00  0.000000e+00  1.855111e+05 -4.975518e+06 -6.721834e+03  3.564606e+03 
 4.000000e+03 -4.879938e+06  4.985835e+02 -4.975052e+06  1.792251e+05 -5.154277e+06  0.000000e+00  0.000000e+00  1.859469e+05 -4.975052e+06 -6.721834e+03  3.637904e+03 
 4.100000e+03 -4.879938e+06  5.011831e+02 -4.975548e+06  1.789177e+05 -5.154466e+06  0.000000e+00  0.000000e+00  1.856396e+05 -4.975548e+06 -6.721834e+03  3.592127e+03 
 4.200000e+03 -4.879939e+06  5.005418e+02 -4.975427e+06  1.791740e+05 -5.154601e+06  0.000000e+00  0.000000e+00  1.858958e+05 -4.975427e+06 -6.721834e+03  3.636265e+03 
 4.300000e+03 -4.879938e+06  5.017489e+02 -4.975656e+06  1.787364e+05 -5.154392e+06  0.000000e+00  0.000000e+00  1.854583e+05 -4.975656e+06 -6.721834e+03  3.555578e+03 
 4.400000e+03 -4.879938e+06  4.998483e+02 -4.975293e+06  1.789856e+05 -5.154279e+06  0.000000e+00  0.000000e+00  1.857075e+05 -4.975293e+06 -6.721834e+03  3.598073e+03 
 4.500000e+03 -4.879938e+06  5.007808e+02 -4.975471e+06  1.790506e+05 -5.154522e+06  0.000000e+00  0.000000e+00  1.857724e+05 -4.975471e+06 -6.721834e+03  3.614391e+03 
 4.600000e+03 -4.879938e+06  4.994822e+02 -4.975223e+06  1.791964e+05 -5.154420e+06  0.000000e+00  0.000000e+00  1.859182e+05 -4.975223e+06 -6.721834e+03  3.636136e+03 
 4.700000e+03 -4.879938e+06  5.003355e+02 -4.975387e+06  1.790747e+05 -5.154461e+06  0.000000e+00  0.000000e+00  1.857965e+05 -4.975387e+06 -6.721834e+03  3.618212e+03 
 4.800000e+03 -4.879938e+06  5.016876e+02 -4.975644e+06  1.787303e+05 -5.154375e+06  0.000000e+00  0.000000e+00  1.854521e+05 -4.975644e+06 -6.721834e+03  3.557859e+03 
 4.900000e+03 -4.879938e+06  5.028553e+02 -4.975867e+06  1.783098e+05 -5.154177e+06  0.000000e+00  0.000000e+00  1.850316e+05 -4.975867e+06 -6.721834e+03  3.478826e+03 
 5.000000e+03 -4.879938e+06  5.010832e+02 -4.975529e+06  1.787580e+05 -5.154287e+06  0.000000e+00  0.000000e+00  1.854798e+05 -4.975529e+06 -6.721834e+03  3.559362e+03 
 5.100000e+03 -4.879937e+06  5.018090e+02 -4.975667e+06  1.786367e+05 -5.154304e+06  0.000000e+00  0.000000e+00  1.853585e+05 -4.975667e+06 -6.721834e+03  3.538060e+03 
 5.200000e+03 -4.879939e+06  5.022592e+02 -4.975754e+06  1.786099e+05 -5.154364e+06  0.000000e+00  0.000000e+00  1.853317e+05 -4.975754e+06 -6.721834e+03  3.533038e+03 
 5.300000e+03 -4.879938e+06  5.011298e+02 -4.975538e+06  1.788122e+05 -5.154350e+06  0.000000e+00  0.000000e+00  1.855340e+05 -4.975538e+06 -6.721834e+03  3.573074e+03 
 5.400000e+03 -4.879937e+06  4.993769e+02 -4.975203e+06  1.790642e+05 -5.154267e+06  0.000000e+00  0.000000e+00  1.857860e+05 -4.975203e+06 -6.721834e+03  3.612802e+03 
 5.500000e+03 -4.879938e+06  5.020502e+02 -4.975713e+06  1.786221e+05 -5.154336e+06  0.000000e+00  0.000000e+00  1.853439e+05 -4.975713e+06 -6.721834e+03  3.536128e+03 
 5.600000e+03 -4.879938e+06  5.010227e+02 -4.975517e+06  1.787439e+05 -5.154261e+06  0.000000e+00  0.000000e+00  1.854657e+05 -4.975517e+06 -6.721834e+03  3.555749e+03 
 5.700000e+03 -4.879939e+06  4.997378e+02 -4.975273e+06  1.790232e+05 -5.154296e+06  0.000000e+00  0.000000e+00  1.857450e+05 -4.975273e+06 -6.721834e+03  3.603131e+03 
 5.800000e+03 -4.879938e+06  5.007571e+02 -4.975467e+06  1.790590e+05 -5.154526e+06  0.000000e+00  0.000000e+00  1.857808e+05 -4.975467e+06 -6.721834e+03  3.612921e+03 
 5.900000e+03 -4.879938e+06  4.999897e+02 -4.975321e+06  1.792122e+05 -5.154533e+06  0.000000e+00  0.000000e+00  1.859341e+05 -4.975321e+06 -6.721834e+03  3.640332e+03 
 6.000000e+03 -4.879938e+06  5.024383e+02 -4.975788e+06  1.786304e+05 -5.154418e+06  0.000000e+00  0.000000e+00  1.853522e+05 -4.975788e+06 -6.721834e+03  3.536162e+03 
 6.100000e+03 -4.879938e+06  5.021704e+02 -4.975737e+06  1.784520e+05 -5.154189e+06  0.000000e+00  0.000000e+00  1.851738e+05 -4.975737e+06 -6.721834e+03  3.504733e+03 
 6.200000e+03 -4.879938e+06  4.991558e+02 -4.975161e+06  1.790571e+05 -5.154218e+06  0.000000e+00  0.000000e+00  1.857790e+05 -4.975161e+06 -6.721834e+03  3.611776e+03 
 6.300000e+03 -4.879937e+06  5.014960e+02 -4.975607e+06  1.787055e+05 -5.154313e+06  0.000000e+00  0.000000e+00  1.854273e+05 -4.975607e+06 -6.721834e+03  3.551478e+03 
 6.400000e+03 -4.879938e+06  4.999806e+02 -4.975319e+06  1.790009e+05 -5.154320e+06  0.000000e+00  0.000000e+00  1.857227e+05 -4.975319e+06 -6.721834e+03  3.600665e+03 
 6.500000e+03 -4.879938e+06  4.985345e+02 -4.975043e+06  1.793050e+05 -5.154348e+06  0.000000e+00  0.000000e+00  1.860268e+05 -4.975043e+06 -6.721834e+03  3.653686e+03 
 6.600000e+03 -4.879938e+06  5.009086e+02 -4.975496e+06  1.786464e+05 -5.154142e+06  0.000000e+00  0.000000e+00  1.853682e+05 -4.975496e+06 -6.721834e+03  3.538337e+03 
 6.700000e+03 -4.879938e+06  5.002389e+02 -4.975368e+06  1.788482e+05 -5.154216e+06  0.000000e+00  0.000000e+00  1.855701e+05 -4.975368e+06 -6.721834e+03  3.572323e+03 
 6.800000e+03 -4.879939e+06  5.021266e+02 -4.975729e+06  1.785204e+05 -5.154249e+06  0.000000e+00  0.000000e+00  1.852422e+05 -4.975729e+06 -6.721834e+03  3.515455e+03 
 6.900000e+03 -4.879938e+06  5.000207e+02 -4.975326e+06  1.790748e+05 -5.154401e+06  0.000000e+00  0.000000e+00  1.857966e+05 -4.975326e+06 -6.721834e+03  3.616110e+03 
 7.000000e+03 -4.879939e+06  5.006771e+02 -4.975453e+06  1.786866e+05 -5.154139e+06  0.000000e+00  0.000000e+00  1.854084e+05 -4.975453e+06 -6.721834e+03  3.543802e+03 
 7.100000e+03 -4.879939e+06  5.009429e+02 -4.975503e+06  1.789649e+05 -5.154468e+06  0.000000e+00  0.000000e+00  1.856868e+05 -4.975503e+06 -6.721834e+03  3.593619e+03 
 7.200000e+03 -4.879938e+06  4.996803e+02 -4.975261e+06  1.791638e+05 -5.154425e+06  0.000000e+00  0.000000e+00  1.858857e+05 -4.975261e+06 -6.721834e+03  3.630386e+03 
 7.300000e+03 -4.879939e+06  5.000575e+02 -4.975334e+06  1.787608e+05 -5.154095e+06  0.000000e+00  0.000000e+00  1.854826e+05 -4.975334e+06 -6.721834e+03  3.553783e+03 
 7.400000e+03 -4.879938e+06  4.999873e+02 -4.975320e+06  1.789031e+05 -5.154223e+06  0.000000e+00  0.000000e+00  1.856249e+05 -4.975320e+06 -6.721834e+03  3.581338e+03 
 7.500000e+03 -4.879938e+06  4.998518e+02 -4.975294e+06  1.788294e+05 -5.154124e+06  0.000000e+00  0.000000e+00  1.855513e+05 -4.975294e+06 -6.721834e+03  3.568368e+03 
 7.600000e+03 -4.879939e+06  5.022779e+02 -4.975758e+06  1.784795e+05 -5.154238e+06  0.000000e+00  0.000000e+00  1.852013e+05 -4.975758e+06 -6.721834e+03  3.509357e+03 
 7.700000e+03 -4.879938e+06  5.020392e+02 -4.975712e+06  1.785570e+05 -5.154269e+06  0.000000e+00  0.000000e+00  1.852789e+05 -4.975712e+06 -6.721834e+03  3.525113e+03 
 7.800000e+03 -4.879938e+06  5.013244e+02 -4.975575e+06  1.787660e+05 -5.154341e+06  0.000000e+00  0.000000e+00  1.854878e+05 -4.975575e+06 -6.721834e+03  3.560986e+03 
 7.900000e+03 -4.879938e+06  4.995536e+02 -4.975237e+06  1.791997e+05 -5.154437e+06  0.000000e+00  0.000000e+00  1.859216e+05 -4.975237e+06 -6.721834e+03  3.636886e+03 
 8.000000e+03 -4.879937e+06  5.001800e+02 -4.975356e+06  1.788792e+05 -5.154235e+06  0.000000e+00  0.000000e+00  1.856010e+05 -4.975356e+06 -6.721834e+03  3.577569e+03 
 8.100000e+03 -4.879938e+06  5.009735e+02 -4.975508e+06  1.788600e+05 -5.154368e+06  0.000000e+00  0.000000e+00  1.855819e+05 -4.975508e+06 -6.721834e+03  3.575900e+03 
 8.200000e+03 -4.879938e+06  5.003896e+02 -4.975397e+06  1.788211e+05 -5.154218e+06  0.000000e+00  0.000000e+00  1.855429e+05 -4.975397e+06 -6.721834e+03  3.566029e+03 
 8.300000e+03 -4.879938e+06  4.997664e+02 -4.975278e+06  1.791744e+05 -5.154452e+06  0.000000e+00  0.000000e+00  1.858962e+05 -4.975278e+06 -6.721834e+03  3.636714e+03 
 8.400000e+03 -4.879938e+06  5.002487e+02 -4.975370e+06  1.789993e+05 -5.154369e+06  0.000000e+00  0.000000e+00  1.857212e+05 -4.975370e+06 -6.721834e+03  3.600879e+03 
 8.500000e+03 -4.879938e+06  5.010882e+02 -4.975530e+06  1.787386e+05 -5.154269e+06  0.000000e+00  0.000000e+00  1.854605e+05 -4.975530e+06 -6.721834e+03  3.552040e+03 
 8.600000e+03 -4.879939e+06  5.019462e+02 -4.975694e+06  1.784737e+05 -5.154168e+06  0.000000e+00  0.000000e+00  1.851955e+05 -4.975694e+06 -6.721834e+03  3.507863e+03 
 8.700000e+03 -4.879938e+06  4.997100e+02 -4.975267e+06  1.787209e+05 -5.153988e+06  0.000000e+00  0.000000e+00  1.854428e+05 -4.975267e+06 -6.721834e+03  3.547751e+03 
 8.800000e+03 -4.879938e+06  5.009843e+02 -4.975511e+06  1.785785e+05 -5.154089e+06  0.000000e+00  0.000000e+00  1.853004e+05 -4.975511e+06 -6.721834e+03  3.524126e+03 
 8.900000e+03 -4.879939e+06  5.017551e+02 -4.975658e+06  1.786664e+05 -5.154324e+06  0.000000e+00  0.000000e+00  1.853883e+05 -4.975658e+06 -6.721834e+03  3.546103e+03 
 9.000000e+03 -4.879938e+06  5.006351e+02 -4.975444e+06  1.789563e+05 -5.154400e+06  0.000000e+00  0.000000e+00  1.856781e+05 -4.975444e+06 -6.721834e+03  3.594715e+03 
 9.100000e+03 -4.879938e+06  5.007136e+02 -4.975459e+06  1.787270e+05 -5.154186e+06  0.000000e+00  0.000000e+00  1.854488e+05 -4.975459e+06 -6.721834e+03  3.551665e+03 
 9.200000e+03 -4.879938e+06  5.014466e+02 -4.975599e+06  1.788025e+05 -5.154401e+06  0.000000e+00  0.000000e+00  1.855243e+05 -4.975599e+06 -6.721834e+03  3.566083e+03 
 9.300000e+03 -4.879938e+06  5.011164e+02 -4.975536e+06  1.788086e+05 -5.154344e+06  0.000000e+00  0.000000e+00  1.855304e+05 -4.975536e+06 -6.721834e+03  3.566901e+03 
 9.400000e+03 -4.879938e+06  5.004214e+02 -4.975402e+06  1.791253e+05 -5.154528e+06  0.000000e+00  0.000000e+00  1.858471e+05 -4.975402e+06 -6.721834e+03  3.627302e+03 
 9.500000e+03 -4.879939e+06  5.031635e+02 -4.975926e+06  1.788354e+05 -5.154762e+06  0.000000e+00  0.000000e+00  1.855572e+05 -4.975926e+06 -6.721834e+03  3.578919e+03 
 9.600000e+03 -4.879939e+06  5.019645e+02 -4.975698e+06  1.789640e+05 -5.154662e+06  0.000000e+00  0.000000e+00  1.856858e+05 -4.975698e+06 -6.721834e+03  3.600066e+03 
 9.700000e+03 -4.879938e+06  4.999087e+02 -4.975305e+06  1.792581e+05 -5.154563e+06  0.000000e+00  0.000000e+00  1.859799e+05 -4.975305e+06 -6.721834e+03  3.649937e+03 
 9.800000e+03 -4.879938e+06  5.016620e+02 -4.975640e+06  1.789993e+05 -5.154639e+06  0.000000e+00  0.000000e+00  1.857211e+05 -4.975640e+06 -6.721834e+03  3.604951e+03 
 9.900000e+03 -4.879938e+06  5.008759e+02 -4.975490e+06  1.788037e+05 -5.154293e+06  0.000000e+00  0.000000e+00  1.855255e+05 -4.975490e+06 -6.721834e+03  3.566747e+03 
 1.000000e+04 -4.879938e+06  5.009674e+02 -4.975507e+06  1.789168e+05 -5.154424e+06  0.000000e+00  0.000000e+00  1.856387e+05 -4.975507e+06 -6.721834e+03  3.589397e+03 
Loop time of 105.954 on 256 procs for 10000 steps with 64000 atoms

Performance: 8.155 ns/day, 2.943 hours/ns, 94.381 timesteps/s
99.9% CPU use with 256 MPI tasks x no OpenMP threads

MPI task timing breakdown:
Section |  min time  |  avg time  |  max time  |%varavg| %total
---------------------------------------------------------------
Pair    | 8.0606     | 8.6026     | 9.222      |   8.9 |  8.12
Kspace  | 92.915     | 93.747     | 94.238     |   3.0 | 88.48
Neigh   | 0.19554    | 0.209      | 0.22192    |   1.2 |  0.20
Comm    | 2.0382     | 2.3001     | 2.5642     |   7.7 |  2.17
Output  | 0.02718    | 0.028512   | 0.038461   |   0.5 |  0.03
Modify  | 0.62407    | 0.72033    | 0.79944    |   5.2 |  0.68
Other   |            | 0.3464     |            |       |  0.33

Nlocal:        250.000 ave         282 max         227 min
Histogram: 6 14 37 56 62 47 24 6 2 2
Nghost:        3474.00 ave        3497 max        3442 min
Histogram: 2 1 7 19 52 52 66 33 18 6
Neighs:        52639.4 ave       59396 max       46354 min
Histogram: 3 12 25 47 59 37 35 25 11 2

Total # of neighbors = 13475687
Ave neighs/atom = 210.55761
Neighbor list builds = 173
Dangerous builds = 0
Total wall time: 0:01:47
